274.448229	275.441045	1_01
277.070763	277.988650	1_02
279.393579	280.367664	1_03
281.323015	288.291464	1_04
289.921182	292.562449	1_05
355.091163	355.653134	2_01
357.058064	363.782991	2_02
366.649047	375.247213	2_03
377.963409	384.763267	2_04
388.003970	396.695798	2_05
449.289256	450.521874	1_01
451.836667	453.685594	1_02
454.425165	455.493434	1_03
457.178012	459.355637	1_04
461.122389	465.436552	1_05
467.573090	470.901158	1_06
531.504876	533.107280	2_01
534.093374	536.353174	2_02
537.380355	538.818410	2_03
539.763417	543.584532	2_04
545.186936	549.583273	2_05
551.062415	555.335491	2_06
631.141497	633.031511	3_01
635.250223	637.345674	3_02
640.221783	642.604844	3_03
644.700295	647.576403	3_04
650.740123	656.410166	3_05
658.957576	662.860866	3_06
728.723754	730.449419	4_01
730.449419	737.598604	4_02
739.694054	748.486729	4_03
