973.687969	975.470127	1_01
976.136186	978.422387	1_02
979.250461	980.960612	1_03
981.626670	984.920961	1_04
985.983055	988.755300	1_05
990.573460	991.761565	1_06
992.841661	1001.536428	1_07
1014.497573	1016.405741	2_01
1017.485836	1019.790040	2_02
1021.752213	1023.354355	2_03
1024.092420	1027.314704	2_04
1028.502809	1031.293056	2_05
1032.517164	1034.119305	2_06
1035.253405	1044.434216	2_07
1054.839134	1057.323354	3_01
1058.205432	1060.707653	3_02
1061.337708	1063.155869	3_03
1064.145956	1067.512253	3_04
1068.286322	1071.076568	3_05
1072.012651	1073.560787	3_06
1074.892905	1084.757776	3_07
1094.766660	1096.044773	4_01
1096.242790	1097.088865	4_02
1097.808928	1099.591086	4_03
1100.077129	1100.545170	4_04
1101.643267	1103.713450	4_05
1104.469516	1107.385774	4_06
1108.627884	1113.704332	4_07
1114.892437	1124.703303	4_08
1134.694185	1136.962385	5_01
1139.068571	1141.444781	5_02
1144.289032	1146.107193	5_03
1148.483403	1150.697598	5_04
1153.595854	1155.918059	5_05
1158.528289	1159.608385	5_06
1161.732572	1169.527261	5_07
