387.567115	395.784465	1_01
398.123084	405.718232	1_02
410.202373	420.865618	1_03
427.280729	434.661325	1_04
438.888004	447.963563	1_05
452.318972	462.488747	1_06
466.221956	474.653858	1_07
477.443036	486.711692	1_08
497.267661	505.549376	2_01
506.686503	516.105345	2_03
517.392658	527.262060	2_04
528.613739	537.110006	2_05
538.590417	546.829222	2_06
548.996199	557.428101	2_07
559.359071	567.276047	2_08
569.700487	579.526979	2_09
589.632388	598.600670	3_01
599.995260	611.538169	3_02
613.018579	626.428092	3_03
628.316152	637.220068	3_04
639.065217	648.805888	3_05
650.629582	661.335737	3_06
662.837602	673.436482	3_07
675.603459	686.245249	3_08
696.801218	707.593194	4_01
709.395432	721.217259	4_02
722.869311	736.986847	4_03
739.711660	749.881435	4_04
751.876770	761.359978	4_05
763.398224	774.297476	4_06
775.842252	786.033482	4_07
788.393557	799.872100	4_08
810.192061	818.795605	5_01
821.220045	830.746163	5_02
833.277879	844.627691	5_03
846.987766	854.776011	5_04
856.642615	865.632353	5_05
868.528808	877.497090	5_06
879.878620	888.803992	5_07
899.381416	910.151937	6_01
913.048392	924.977495	6_02
928.345964	942.313313	6_03
949.479357	959.756408	6_04
961.537191	971.149130	6_05
973.831033	985.395397	6_06
987.819837	998.762000	6_07
1004.962559	1017.621139	6_08
1027.919646	1033.605279	7_01
1035.793712	1042.273189	7_02
1043.968151	1051.541844	7_03
1055.081956	1060.746134	7_04
1062.505462	1070.272252	7_05
1072.932700	1081.364602	7_06
1086.835683	1094.988667	7_08
1096.984003	1106.090068	7_09 
